version="1"
tags={
	"Map"
	"Historical"
	"Utilities"
}
name="House Divided"
replace_path="common/ai_equipment"
replace_path="common/ai_focuses"
replace_path="common/ai_peace"
replace_path="common/ai_strategy"
replace_path="common/ai_strategy_plans"
replace_path="common/bookmarks"
replace_path="common/country_leader"
replace_path="common/countries"
replace_path="common/decisions"
replace_path="common/game_rules"
replace_path="common/ideas"
replace_path="common/ideologies"
replace_path="common/national_focus"
replace_path="common/on_actions"
replace_path="common/scripted_effects"
replace_path="common/scripted_localisation"
replace_path="common/scripted_triggers"
replace_path="common/units/codenames_operatives"
replace_path="common/units/names"
replace_path="common/units/names_divisions"
replace_path="common/units/names_ships"
replace_path="history/countries"
replace_path="history/states"
replace_path="history/units"
replace_path="events"
replace_path="gfx/flags"
replace_path="gfx/loadingscreens"
replace_path="map/strategicregions"
replace_path="map/supplyareas"
replace_path="portraits"
supported_version="1.9.3"