
strategic_region={
	id=17
	name="STRATEGICREGION_17"
	provinces={
		10 12 13 14 16 17 18 23 25 26 27 30 34 40 41 43 47 48 54 56 65 66 68 70 71 72 73 74 77 85 86 89 94 97 100 102 107 109 111 115 126 127 130 132 134 135 136 140 142 143 147 150 153 154 158 160 162 166 167 174 178 179 180 182 184 185 186 187 188 190 191 192 193 194 199 204 205 209 211 217 220 226 227 230 234 236 237 245 248 251 256 259 261 264 266 267 269 271 273 279 280 281 283 285 294 300 301 302 304 312 319 321 329 331 332 336 337 338 339 341 343 346 348 349 351 352 353 355 357 359 364 366 369 370 373 378 384 391 393 403 407 408 411 412 413 418 419 426 427 429 432 436 437 439 440 442 444 446 450 451 454 462 464 465 467 468 469 471 473 475 476 478 480 484 486 488 489 493 498 501 502 503 509 510 513 514 515 516 518 519 525 527 528 529 531 532 535 537 539 541 544 547 550 551 553 554 556 564 568 573 574 577 579 581 583 584 585 588 590 592 594 599 601 602 603 605 607 610 611 616 618 619 620 624 629 631 647 650 651 662 663 664 665 666 667 668 669 671 673 677 678 679 688 689 694 695 697 699 701 702 703 704 708 711 712 715 717 719 720 722 725 731 732 736 740 747 749 756 767 776 779 783 784 788 790 795 798 802 803 807 808 813 821 825 827 835 846 847 849 866 868 869 875 877 878 883 888 892 894 896 900 903 910 914 915 920 921 922 923 927 932 934 936 940 946 947 949 950 952 953 958 960 963 968 971 974 977 978 981 985 986 988 993 996 997 998 999 1002 1003 1004 1007 1008 1010 1012 1014 1015 1016 1018 1020 1025 1029 1035 1037 1040 1048 1049 1052 1055 1056 1061 1062 1075 1076 1080 1088 1091 1092 1093 1098 1100 1101 1110 1111 1112 1115 1120 1121 1123 1124 1125 1133 1135 1138 1140 1144 1145 1148 1159 1162 1166 1177 1180 1181 1182 1186 1187 1195 1198 1200 1205 1206 1207 1210 1214 1220 1221 1222 1226 1228 1231 1232 1233 1239 1246 1248 1254 1256 1261 1264 1268 1275 1283 1288 1294 1296 1299 1304 1308 1313 1314 1315 1316 1324 1328 1329 1337 1339 1341 1344 1353 1356 1357 1359 1364 1366 1370 1378 1380 1381 1383 1386 1390 1392 1393 1394 1397 1398 1399 1409 1412 1415 1420 1424 1427 1435 1437 1438 1443 1456 1462 1463 1468 1474 1477 1478 1483 1485 1489 1491 1492 1493 1495 1497 1498 1501 1503 1505 1507 1514 1515 1519 1520 1523 1529 1530 1533 1540 1541 1549 1550 1559 1560 1563 1565 1568 1569 1570 1572 1575 1576 1577 1578 1581 1584 1585 1588 1594 1595 1600 1603 1607 1609 1612 1617 1621 1624 1625 1626 1635 1638 1640 1644 1647 1648 1650 1658 1662 1663 1668 1674 1676 1677 1678 1682 1686 1689 1690 1695 1696 1700 1706 1712 1713 1721 1726 1729 1730 1737 1739 1745 1748 1752 1753 1754 1755 1763 1765 1771 1772 1778 1780 1781 1783 1784 1792 1794 1797 1802 1805 1810 1812 1817 1819 1822 1824 1830 1832 1836 1838 1840 1842 1857 1861 1862 1863 1869 1871 1873 1875 1876 1877 1880 1882 1884 1885 1886 1887 1889 1892 1910 1912 1914 1918 1920 1925 1926 1930 1931 1933 1935 1936 1938 1941 1942 1945 1949 1955 1957 1959 1964 1967 1971 1974 1975 1977 1982 1983 1984 1991 1995 1997 2000 2009 2010 2017 2019 2021 2022 2030 2031 2033 2039 2041 2048 2053 2057 2062 2065 2068 2071 2074 2079 2083 2084 2089 2097 2101 2109 2110 2113 2114 2118 2123 2127 2129 2130 2131 2133 2137 2140 2142 2143 2146 2152 2156 2157 2159 2163 2165 2167 2173 2178 2181 2182 2183 2184 2185 2186 2193 2198 2203 2207 2210 2213 2217 2218 2228 2229 2230 2233 2236 2238 2247 2250 2251 2253 2254 2258 2264 2268 2281 2282 2287 2295 2296 2298 2317 2324 2328 2330 2337 2338 2339 2341 2342 2345 2357 2358 2363 2366 2367 2370 2371 2372 2373 2375 2378 2387 2391 2394 2399 2403 2407 2408 2411 2417 2422 2423 2424 2425 2426 2429 2433 2435 2437 2438 2447 2449 2450 2451 2454 2455 2460 2463 2467 2469 2472 2474 2475 2476 2477 2479 2484 2485 2497 2501 2509 2512 2514 2516 2521 2528 2535 2536 2538 2539 2546 2547 2551 2553 2554 2555 2560 2561 2566 2569 2571 2578 2585 2594 2609 2612 2614 2619 2620 2624 2626 2638 2653 2655 2656 2657 2658 2662 2663 2665 2666 2668 2670 2674 2675 2692 2693 2696 2697 2698 2702 2703 2705 2708 2711 2715 2724 2725 2734 2736 2749 2750 2752 2754 2756 2760 2761 2766 2770 2777 2782 2783 2785 2788 2798 2800 2803 2809 2811 2813 2817 2818 2824 2829 2831 2832 2833 2836 2845 2850 2854 2858 2859 2861 2863 2866 2878 2879 2882 2883 2885 2895 2897 2898 2909 2910 2921 2923 2927 2928 2932 2938 2941 2945 2953 2954 2964 2970 2972 2975 2979 2983 2984 2985 2986 2987 2992 2999 3003 3004 3011 3012 3015 3018 3024 3029 3036 3041 3044 3049 3054 3057 3087 3088 3103 3109 3110 3115 3116 3124 3138 3145 3148 3152 3155 3157 3167 3172 3192 3195 3196 3205 3207 3209 3213 3217 3220 3226 3231 3232 3233 3241 3243 3248 3250 3253 3256 3257 3261 3265 3266 3267 3268 3274 3275 3276 3279 3285 3292 3306 3313 3338 3348 3362 3363 3368 3384 3388 3389 3392 3393 3395 3400 3401 3404 3413 3420 3426 3428 3434 3438 3439 3440 3443 3445 3447 3453 3456 3459 3461 3465 3468 3472 3473 3475 3484 3486 3494 3497 3508 3509 3510 3523 3527 3528 3531 3538 3543 3544 3560 3573 3574 3575 3576 3577 3582 3588 3590 3606 3612 3616 3621 3625 3626 3627 3629 3638 3640 3649 3657 3670 3678 3682 3695 3698 3702 3709 3713 3714 3716 3719 3723 3734 3745 3748 3749 3751 3754 3755 3770 3772 3778 3782 3784 3795 3798 3805 3806 3809 3815 3817 3823 3827 3828 3830 3833 3840 3846 3848 3850 3857 3867 3869 3870 3877 3881 3882 3892 3896 3898 3904 3908 3911 3923 3926 3931 3944 3958 3976 3980 3986 3987 3990 3991 3998 4003 4008 4018 4022 4026 4028 4034 4036 4041 4047 4066 4069 4077 4079 4080 4088 4089 4098 4105 4108 4125 4126 4127 4129 4134 4137 4140 4150 4161 4166 4169 4172 4173 4177 4198 4211 4217 4226 4235 4237 4246 4247 4248 4251 4253 4260 4262 4263 4271 4275 4284 4289 4290 4293 4300 4311 4313 4317 4327 4331 4335 4347 4348 4352 4355 4359 4361 4367 4374 4381 4382 4385 4400 4401 4404 4407 4408 4409 4416 4418 4427 4430 4432 4433 4435 4446 4453 4457 4459 4460 4463 4475 4476 4480 4493 4508 4512 4515 4516 4522 4527 4535 4536 4544 4569 4571 4573 4574 4575 4577 4586 4597 4600 4608 4609 4614 4615 4630 4634 4640 4654 4666 4672 4679 4681 4688 4691 4703 4710 4722 4728 4738 4741 4748 4762 4769 4770 4782 4784 4791 4796 4800 4807 4808 4818 4832 4836 4843 4844 4858 4861 4862 4864 4889 4893 4902 4903 4915 4918 4920 4925 4926 4938 4948 4953 4963 4973 4975 4986 4993 5009 5018 5020 5029 5037 5041 5047 5055 5065 5066 5074 5090 5095 5098 5099 5100 5101 5104 5108 5110 5116 5119 5122 5127 5138 5140 5145 5155 5157 5161 5165 5169 5170 5185 5187 5191 5192 5197 5205 5209 5220 5224 5227 5237 5240 5249 5266 5270 5279 5281 5296 5297 5299 5308 5312 5315 5316 5317 5321 5332 5335 5336 5343 5345 5351 5353 5354 5359 5370 5395 5409 5413 5415 5417 5419 5421 5423 5425 5429 5445 5471 5473 5476 5486 5489 5498 5505 5508 5523 5525 5526 5535 5539 5546 5552 5565 5566 5569 5571 5573 5577 5587 5588 5589 5608 5620 5632 5651 5674 5691 5692 5696 5697 5701 5710 5712 5714 5717 5732 5737 5742 5745 5752 5753 5773 5783 5785 5795 5806 5821 5838 5842 5843 5848 5852 5855 5861 5868 5877 5880 5887 5901 5904 5908 5923 5926 5932 5945 5957 5958 5959 5962 5977 5980 5985 6000 6002 6009 6012 6014 6023 6031 6032 6041 6053 6063 6068 6071 6082 6083 6097 6103 6108 6126 6127 6133 6136 6137 6149 6167 6174 6182 6183 6192 6196 6200 6202 6205 6206 6228 6230 6240 6243 6244 6254 6267 6269 6280 6282 6287 6296 6297 6300 6303 6307 6313 6316 6319 6324 6336 6351 6353 6358 6359 6361 6368 6369 6383 6386 6388 6389 6390 6391 6396 6398 6405 6407 6417 6439 6440 6450 6452 6463 6466 6471 6476 6489 6502 6505 6510 6516 6524 6543 6552 6562 6563 6567 6569 6575 6585 6588 6591 6596 6598 6609 6625 6626 6634 6642 6657 6660 6661 6665 6669 6684 6690 6691 6693 6721 6723 6735 6736 6738 6752 6756 6762 6763 6781 6783 6789 6794 6798 6803 6806 6807 6808 6816 6817 6822 6824 6826 6831 6832 6834 6854 6856 6862 6864 6873 6886 6889 6897 6899 6914 6919 6922 6932 6933 6934 6935 6936 6937 6938 6939 6940 6941 6942 6943 6944 6945 6946 6947 6948 6949 6950 6951 6952 6953 6954 6955 6956 6957 6958 6959 6960 6961 6962 6963 6964 6965 6966 6967 6968 6969 6970 6971 6972 6973 6974 6975 6976 6977 6978 6979 6980 6981 6982 6983 6984 6985 6986 6987 6988 6989 6990 6991 6992 6993 6994 6995 6996 6997 6998 6999 7000 7001 7002 7003 7004 7005 7006 7007 7008 7009 7010 7011 7012 7013 7014 7015 7016 7017 7018 7019 7020 7021 7022 7023 7024 7025 7026 7027 7028 7029 7030 7031 7032 7033 7034 7035 7036 7037 7038 7039 7040 7041 7042 7043 7044 7045 7046 7047 7048 7049 7050 7051 7052 7053 7054 7055 7056 7057 7058 7059 7060 7061 7062 7063 7064 7065 7066 7067 7068 7069 7070 7071 7072 7073 7074 7075 7076 7077 7078 7079 7080 7081 7082 7083 7084 7085 7086 7087 7088 7089 7090 7091 7092 7093 7094 7095 7096 7097 7098 7099 7100 7101 7102 7103 7104 7105 7106 7107 7108 7109 7110 7111 7112 7113 7114 7115 7116 7117 7118 7119 7120 7121 7122 7123 7124 7125 7126 7127 7128 7129 7130 7131 7132 7133 7134 7135 7136 7137 7138 7139 7140 7141 7142 7143 7144 7145 7146 7147 7148 7149 7150 7151 7152 7153 7154 7155 7156 7157 7158 7159 7160 7161 7162 7163 7164 7165 7166 7167 7168 7169 7170 7171 7173 7174 7175 7176 7177 7179 7180 7182 7185 7186 7187 7189 7190 7191 7192 7194 7195 7196 7197 7198 7199 7202 7203 7204 7205 7206 7207 7208 7212 7213 7214 7215 7219 7220 7221 7225 7226 7228 7229 7230 7231 7232 7234 7235 7236 7238 7241 7245 7246 7250 7251 7253 7255 7258 7259 7262 7263 7266 7267 7268 7269 7274 7276 7277 7279 7280 7282 7284 7285 7288 7289 7290 7292 7293 7294 7295 7297 7298 7299 7300 7303 7304 7305 7308 7309 7312 7313 7315 7318 7319 7323 7326 7327 7328 7333 7334 7335 7336 7339 7340 7343 7346 7356 7364 7367 7372 7373 7375 7378 7379 7381 7384 7386 7388 7389 7391 7393 7398 7401 7402 7405 7408 7410 7413 7414 7417 7425 7427 7428 7434 7435 7438 7439 7443 7446 7450 7461 7463 7488 7497 7498 7516 7518 7526 7546 7549 7553 7558 7575 7582 7591 7595 7598 7603 7605 7611 7615 7627 7630 7636 7640 7662 7696 7708 7713 7720 7757 7763 7808 7815 7840 7867 7905 12675 12678 12680 12687 12691 12693 12698 12701 12704 12715 12716 12719 12721 12725 12737 12741 12742 12745 
	}
	weather={
	}
}
