strategic_region={
	id=30
	name="STRATEGICREGION_30"
	provinces={
		75 121 156 292 490 886 925 1033 1253 1305 1323 1362 1528 1806 1820 1837 1894 2174 2232 2596 2884 3013 3042 3122 3320 3397 3493 3571 3669 3680 3758 3853 3874 3914 3935 3954 3993 4020 4050 4071 4094 4128 4332 4384 4549 4592 4610 4637 4675 4725 4744 4747 4749 4794 4823 4845 4849 4857 4868 4877 4886 4998 5021 5056 5068 5075 5077 5118 5129 5146 5229 5397 5449 5494 5584 5614 5622 5659 5672 5687 5798 5846 5898 5936 5998 6066 6115 6143 6190 6207 6318 6344 6366 6512 6521 6584 6654 6666 6668 6673 6687 6746 6764 8820 8835 8866 8871 8877 8878 8885 8886 8889 8890 8893 8898 8903 8904 8913 8915 8917 8920 8923 8930 8931 8939 8942 8946 8947 8948 8953 8971 8974 8976 8977 8978 8985 8990 8994 9009 9011 9028 9029 9041 9042 9043 9052 9058 9061 9066 9072 9073 9075 9083 9086 9089 9092 9093 9094 9095 9098 9102 9105 9112 9114 9115 9127 9128 9138 9139 9140 9146 9147 9148 9155 9169 9188 
	}
	weather={
	}
}
