strategic_region={
	id=45
	name="STRATEGICREGION_45"
	provinces={
		95 499 545 615 622 635 721 727 768 845 856 871 931 967 1068 1234 1387 1403 1417 1430 1439 1450 1466 1608 1636 1652 1782 1789 1881 1979 1985 1996 2026 2090 2160 2349 2377 2508 2519 2564 2646 2648 2713 2720 2737 2744 2791 2860 2867 2877 2935 2959 3076 3139 3143 3149 3212 3282 3522 3646 3711 3800 3838 3859 3941 4049 4118 4167 4183 4221 4223 4276 4477 4644 4801 4819 4871 4979 5094 5112 5149 5271 5295 5360 5377 5442 5621 5698 5724 5851 5953 5956 6007 6260 6542 6566 6583 6805 6879 6910 8281 8298 8302 8327 8331 8336 8345 8357 8380 8385 8410 8438 8445 8459 8461 8469 8470 8480 8493 8497 8505 8508 8548 8559 8571 8575 8579 8587 8602 8608 8610 8629 8655 8672 8682 8699 8731 8747 8757 8775 8780 8823 
	}
	weather={
	}
}
