strategic_region={
	id=57
	name="STRATEGICREGION_57"
	provinces={
		10364 10402 10416 10507 10512 10517 10565 10612 10696 10711 10734 10749 10759 10772 10827 10870 10935 10940 11010 11037 11041 11069 11105 11118 11141 11232 11245 11248 11286 11303 11312 11334 11345 11367 11370 11483 11536 11564 11565 11675 11820 11832 11835 11839 11841 11855 11860 11910 11923 11937 11939 11957 11963 11964 11968 11976 11980 11985 12061 12067 12090 12169 12224 12267 12277 12278 12345 12359 12361 12362 12367 12368 12370 12371 12373 12380 12382 
	}
	weather={
	}
}
