strategic_region={
	id=70
	name="STRATEGICREGION_70"
	provinces={
		10465 10480 10488 10504 10509 10526 10543 10556 10566 10668 10703 10716 10717 10728 10748 10753 10757 10761 10765 10788 10793 10814 10840 10858 10861 10868 10884 10899 10955 10963 10977 11070 11101 11111 11113 11114 11137 11160 11174 11188 11227 11239 11262 11283 11305 11343 11366 11418 11430 11444 11484 11494 11510 11540 11550 11637 11639 11665 11683 11760 11789 11810 11821 11843 11850 11865 11866 11890 11892 11904 11914 11960 11970 11982 12050 12055 12069 12074 12085 12113 12146 12154 12190 12196 12199 12226 12237 12265 12273 12275 12288 12304 12309 12331 12333 12334 12502 12518 12526 12532 12548 12561 12563 12567 12571 12591 12597 12606 12607 12635 12667 
	}
	weather={
	}
}
