state={
	id=12
	name="STATE_12"
	provinces={
		2 196 198 216 228 231 232 290 380 381 445 455 507 656 660 763 773 815 957 983 987 995 1053 1057 1327 1425 1512 1518 1591 1602 1725 1818 1943 1973 2141 2398 2549 2550 2864 3002 3014 3136 3180 3199 3259 3333 3365 3402 3444 3464 3485 3492 3521 3558 3622 3636 3703 3934 3971 4052 4268 4328 4452 4557 4561 4572 4611 4646 4733 4757 4764 4785 4848 4885 4970 5014 5132 5193 5223 5245 5288 5313 5469 5767 5867 5903 5912 5927 5966 5987 6005 6098 6235 6248 6342 6507 6565 6653 6658 6671 6676 6711 6722 6753 6775 6829 6837 6869 6880 7172 7178 7181 7183 7184 7188 7193 7200 7201 7209 7210 7211 7216 7217 7218 7223 7224 7227 7233 7239 7240 7242 7243 7244 7247 7248 7252 7254 7256 7260 7261 7264 7271 7272 7273 7275 7278 7283 7291 7302 7311 7316 7321 7325 7349 7350 
	}
	manpower=3712
	buildings_max_level_factor=1.000
}
