
state={
	id=20
	name="STATE_20"
	provinces={
		309 354 852 1218 1878 1893 2096 2304 2389 2616 2847 3263 3664 4721 4815 5603 5981 6682 7307 7348 7360 7441 7468 
	}
	manpower=288
	buildings_max_level_factor=1.000
}
