state={
	id=366
	name="STATE_366" #Clay Effingham Jasper Crawford
	provinces={
		2420 2907 5689 6881 8556 8563 
	}
	manpower=36993
	state_category = large_city
	buildings_max_level_factor=1.000
	
	history = {
		owner = ILL
		add_core_of = ILL
		buildings = {
			infrastructure = 4
		}
	}
}