state={
	id=38
	name="STATE_38" #Gloucester Salem Cumberland Cape_may Atlantic
	provinces={
		2491 2908 3687 5305 5433 5954 6833 8160 8161 8174 8191 8192 8209 
	}
	manpower=77494
	buildings_max_level_factor=1.000

	history = {
		owner = NJY
		add_core_of = NJY
		buildings = {
			infrastructure = 4
		}
	}
}
