state={
	id=50
	name="STATE_50" # 
	provinces={
		53 124 241 303 385 402 520 612 716 726 945 1104 1524 1768 2015 2195 2285 2402 2718 2926 3090 3144 3688 3767 3907 4039 4096 4296 4596 4983 5431 5886 5942 6264 6442 6594 8455 8513 8532 8581 8617 8709 8748 8800 8830 8831 
	}
	manpower=5000
	buildings_max_level_factor=1.000
}
