state={
	id=511
	name="STATE_511"
	provinces={
		545 768 845 1068 1430 1636 2519 2737 2744 2860 3143 3149 3212 3711 4167 4477 4644 4801 5094 5360 5953 5956 6260 8469 8470 8480 8497 8505 8559 8571 8579 8587 8602 8608 8610 8699 8757
	}
	manpower=4000
	state_category = large_city
	buildings_max_level_factor=1.000
}