state={
	id=520
	name="STATE_520"
	provinces={
		128 485 659 918 972 1073 1262 1276 1410 1499 2036 2072 2246 2252 2543 2896 2902 2914 2981 3046 3135 3224 3225 3679 3759 4070 4220 4244 4775 4837 4940 5042 5796 6142 7314 7338 7353 7382 7396 7412 7432 7501 7508 
	}
	manpower=1000
	buildings_max_level_factor=1.000
}
