state={
	id=67
	name="STATE_67" #Saint_Jaimes Saint_John_the_Baptist Saint_Charles Jefferson Plaquemines Saint_Bernard Orleans
	provinces={
		1592 1764 3270 4995 5311 9824 9857 9869 9870 9887 9894 
	}
	manpower=170716
	buildings_max_level_factor=1.000 #test changes
	history = {
		owner = LOU
		add_core_of = LOU
		buildings = {
			infrastructure = 4
		}
	}
}

