state={
	id=8
	name="STATE_8"
	provinces={
		16 40 72 73 166 182 204 209 220 230 236 300 302 336 337 338 349 355 366 403 418 442 444 446 462 475 476 478 502 509 514 518 527 531 535 577 581 592 602 605 664 695 699 703 708 717 747 802 803 875 910 953 974 998 1016 1062 1093 1100 1111 1135 1144 1145 1177 1198 1206 1220 1313 1324 1339 1341 1344 1386 1415 1420 1424 1427 1462 1478 1483 1485 1491 1505 1563 1569 1581 1595 1640 1647 1668 1686 1712 1745 1753 1763 1781 1784 1824 1832 1840 1863 1871 1873 1875 1926 1935 1974 1982 1984 2000 2033 2041 2057 2101 2130 2143 2146 2156 2163 2178 2230 2233 2250 2251 2253 2268 2317 2399 2429 2469 2477 2485 2521 2546 2555 2560 2609 2614 2619 2626 2665 2670 2692 2693 2705 2749 2750 2752 2754 2760 2761 2777 2809 2813 2829 2836 2879 2897 2909 2910 2938 2953 2972 2987 3003 3018 3054 3110 3205 3207 3241 3265 3268 3275 3292 3338 3362 3384 3388 3393 3395 3438 3443 3588 3698 3709 3734 3772 3892 3926 3944 3998 4026 4134 4169 4235 4237 4247 4271 4313 4335 4347 4348 4359 4401 4430 4446 4460 4475 4574 4762 4769 4770 4791 4864 4893 4918 4938 5098 5116 5157 5191 5209 5237 5270 5297 5315 5345 5359 5421 5429 5565 5571 5588 5632 5701 5712 5908 5962 5980 6012 6041 6083 6108 6174 6243 6267 6303 6336 6358 6359 6361 6398 6405 6505 6569 6721 6763 6816 6817 6862 6886 6889 7014 7042 7049 7054 7066 7068 7082 7099 7100 7102 7105 7108 7109 7117 7118 7128 7139 7144 7157 7165 7171 7174 7177 7182 7187 7197 7202 7203 7204 7205 7206 7214 7219 7229 7232 7250 7255 7259 7266 7276 7279 7282 7284 7285 7297 7298 7300 7308 7312 7315 7323 7326 7336 7401 7439 7461 7488 7516 7526 7549 
	}
	manpower=0
	buildings_max_level_factor=1.000
	history = {
		owner = CAN
		add_core_of = CAN
		buildings = {
			infrastructure = 4
		}
	}
}
